%YAML 1.1
%TAG !u! tag:unity3d.com,2011:
--- !u!1045 &1
EditorBuildSettings:
  m_ObjectHideFlags: 0
  serializedVersion: 2
  m_Scenes:
  - enabled: 0
    path: 
    guid: 00000000000000000000000000000000
  - enabled: 1
    path: Assets/Scenes/MainMenu.unity
    guid: 1010094960c19af46837c0d928578ad2
  - enabled: 1
    path: Assets/Scenes/UpgradingMenu.unity
    guid: 7f4eecc3f1099f6439cad72fd4ec8e89
  - enabled: 1
    path: Assets/Scenes/Game.unity
    guid: 95af8eb9144d7ef42aa5a38a66d3db1e
  - enabled: 1
    path: Assets/Scenes/BossBattle.unity
    guid: 6d27c66fc33a0b34a876ef914bad09a9
  - enabled: 1
    path: Assets/Scenes/GameOver.unity
    guid: 0829f8924a115dc4cac84733d1cc12e4
  m_configObjects: {}
