%YAML 1.1
%TAG !u! tag:unity3d.com,2011:
--- !u!114 &11400000
MonoBehaviour:
  m_ObjectHideFlags: 0
  m_CorrespondingSourceObject: {fileID: 0}
  m_PrefabInstance: {fileID: 0}
  m_PrefabAsset: {fileID: 0}
  m_GameObject: {fileID: 0}
  m_Enabled: 1
  m_EditorHideFlags: 0
  m_Script: {fileID: 11500000, guid: 490ea6bf53af73a468630d4fe7831d55, type: 3}
  m_Name: Stats
  m_EditorClassIdentifier: 
  pistolMultiplier: 1
  sniperMultiplier: 1
  shotgunMultiplier: 1
  assaultRifleMultiplier: 1
